%YAML 1.1
%TAG !u! tag:unity3d.com,2011:
--- !u!114 &11400000
MonoBehaviour:
  m_ObjectHideFlags: 0
  m_PrefabParentObject: {fileID: 0}
  m_PrefabInternal: {fileID: 0}
  m_GameObject: {fileID: 0}
  m_Enabled: 1
  m_EditorHideFlags: 0
  m_Script: {fileID: 11500000, guid: 9f44607bd270d4f4eaa8869ed9b5b85c, type: 3}
  m_Name: Patiente-03_lypsinc
  m_EditorClassIdentifier: 
  clip: {fileID: 8300000, guid: 7bf08a8732cb1ea44891312613454274, type: 3}
  phonemeData:
  - phoneme: 0
    phonemeNumber: 0
    time: 0.04499644
    intensity: 1
    sustain: 0
    useRandomness: 0
    intensityRandomness: 0.1
    blendableRandomness: 0.3
    bonePositionRandomness: 0.3
    boneRotationRandomness: 0.3
  - phoneme: 0
    phonemeNumber: 4
    time: 0.061969023
    intensity: 0.85
    sustain: 0
    useRandomness: 0
    intensityRandomness: 0.1
    blendableRandomness: 0.3
    bonePositionRandomness: 0.3
    boneRotationRandomness: 0.3
  - phoneme: 0
    phonemeNumber: 4
    time: 0.0815902
    intensity: 0.85
    sustain: 0
    useRandomness: 0
    intensityRandomness: 0.1
    blendableRandomness: 0.3
    bonePositionRandomness: 0.3
    boneRotationRandomness: 0.3
  - phoneme: 0
    phonemeNumber: 1
    time: 0.113850996
    intensity: 0.9
    sustain: 0
    useRandomness: 0
    intensityRandomness: 0.1
    blendableRandomness: 0.3
    bonePositionRandomness: 0.3
    boneRotationRandomness: 0.3
  - phoneme: 0
    phonemeNumber: 4
    time: 0.14567201
    intensity: 0.85
    sustain: 0
    useRandomness: 0
    intensityRandomness: 0.1
    blendableRandomness: 0.3
    bonePositionRandomness: 0.3
    boneRotationRandomness: 0.3
  - phoneme: 0
    phonemeNumber: 1
    time: 0.16599834
    intensity: 0.85
    sustain: 0
    useRandomness: 0
    intensityRandomness: 0.1
    blendableRandomness: 0.3
    bonePositionRandomness: 0.3
    boneRotationRandomness: 0.3
  - phoneme: 0
    phonemeNumber: 2
    time: 0.2100387
    intensity: 0.85
    sustain: 0
    useRandomness: 0
    intensityRandomness: 0.1
    blendableRandomness: 0.3
    bonePositionRandomness: 0.3
    boneRotationRandomness: 0.3
  - phoneme: 0
    phonemeNumber: 4
    time: 0.23375276
    intensity: 0.85
    sustain: 0
    useRandomness: 0
    intensityRandomness: 0.1
    blendableRandomness: 0.3
    bonePositionRandomness: 0.3
    boneRotationRandomness: 0.3
  - phoneme: 0
    phonemeNumber: 1
    time: 0.27669868
    intensity: 0.8
    sustain: 0
    useRandomness: 0
    intensityRandomness: 0.1
    blendableRandomness: 0.3
    bonePositionRandomness: 0.3
    boneRotationRandomness: 0.3
  - phoneme: 0
    phonemeNumber: 4
    time: 0.3136787
    intensity: 0.85
    sustain: 0
    useRandomness: 0
    intensityRandomness: 0.1
    blendableRandomness: 0.3
    bonePositionRandomness: 0.3
    boneRotationRandomness: 0.3
  - phoneme: 0
    phonemeNumber: 4
    time: 0.34574217
    intensity: 0.85
    sustain: 0
    useRandomness: 0
    intensityRandomness: 0.1
    blendableRandomness: 0.3
    bonePositionRandomness: 0.3
    boneRotationRandomness: 0.3
  - phoneme: 0
    phonemeNumber: 9
    time: 0.3824764
    intensity: 0.5
    sustain: 0
    useRandomness: 0
    intensityRandomness: 0.1
    blendableRandomness: 0.3
    bonePositionRandomness: 0.3
    boneRotationRandomness: 0.3
  - phoneme: 0
    phonemeNumber: 9
    time: 0.41657922
    intensity: 0.5
    sustain: 0
    useRandomness: 0
    intensityRandomness: 0.1
    blendableRandomness: 0.3
    bonePositionRandomness: 0.3
    boneRotationRandomness: 0.3
  - phoneme: 0
    phonemeNumber: 0
    time: 0.4471792
    intensity: 0.85
    sustain: 0
    useRandomness: 0
    intensityRandomness: 0.1
    blendableRandomness: 0.3
    bonePositionRandomness: 0.3
    boneRotationRandomness: 0.3
  - phoneme: 0
    phonemeNumber: 4
    time: 0.4675055
    intensity: 0.85
    sustain: 0
    useRandomness: 0
    intensityRandomness: 0.1
    blendableRandomness: 0.3
    bonePositionRandomness: 0.3
    boneRotationRandomness: 0.3
  - phoneme: 0
    phonemeNumber: 2
    time: 0.4946073
    intensity: 0.85
    sustain: 0
    useRandomness: 0
    intensityRandomness: 0.1
    blendableRandomness: 0.3
    bonePositionRandomness: 0.3
    boneRotationRandomness: 0.3
  - phoneme: 0
    phonemeNumber: 5
    time: 0.521709
    intensity: 0.85
    sustain: 0
    useRandomness: 0
    intensityRandomness: 0.1
    blendableRandomness: 0.3
    bonePositionRandomness: 0.3
    boneRotationRandomness: 0.3
  - phoneme: 0
    phonemeNumber: 0
    time: 0.5553465
    intensity: 0.85
    sustain: 0
    useRandomness: 0
    intensityRandomness: 0.1
    blendableRandomness: 0.3
    bonePositionRandomness: 0.3
    boneRotationRandomness: 0.3
  - phoneme: 0
    phonemeNumber: 4
    time: 0.57438374
    intensity: 0.85
    sustain: 0
    useRandomness: 0
    intensityRandomness: 0.1
    blendableRandomness: 0.3
    bonePositionRandomness: 0.3
    boneRotationRandomness: 0.3
  - phoneme: 0
    phonemeNumber: 2
    time: 0.619953
    intensity: 0.85
    sustain: 0
    useRandomness: 0
    intensityRandomness: 0.1
    blendableRandomness: 0.3
    bonePositionRandomness: 0.3
    boneRotationRandomness: 0.3
  - phoneme: 0
    phonemeNumber: 0
    time: 0.643667
    intensity: 0.85
    sustain: 0
    useRandomness: 0
    intensityRandomness: 0.1
    blendableRandomness: 0.3
    bonePositionRandomness: 0.3
    boneRotationRandomness: 0.3
  - phoneme: 0
    phonemeNumber: 0
    time: 0.67754424
    intensity: 0.85
    sustain: 0
    useRandomness: 0
    intensityRandomness: 0.1
    blendableRandomness: 0.3
    bonePositionRandomness: 0.3
    boneRotationRandomness: 0.3
  - phoneme: 0
    phonemeNumber: 4
    time: 0.7148091
    intensity: 0.85
    sustain: 0
    useRandomness: 0
    intensityRandomness: 0.1
    blendableRandomness: 0.3
    bonePositionRandomness: 0.3
    boneRotationRandomness: 0.3
  - phoneme: 0
    phonemeNumber: 3
    time: 0.7520741
    intensity: 0.85
    sustain: 0
    useRandomness: 0
    intensityRandomness: 0.1
    blendableRandomness: 0.3
    bonePositionRandomness: 0.3
    boneRotationRandomness: 0.3
  - phoneme: 0
    phonemeNumber: 4
    time: 0.78265387
    intensity: 0.85
    sustain: 0
    useRandomness: 0
    intensityRandomness: 0.1
    blendableRandomness: 0.3
    bonePositionRandomness: 0.3
    boneRotationRandomness: 0.3
  - phoneme: 0
    phonemeNumber: 0
    time: 0.80417806
    intensity: 1
    sustain: 0
    useRandomness: 0
    intensityRandomness: 0.1
    blendableRandomness: 0.3
    bonePositionRandomness: 0.3
    boneRotationRandomness: 0.3
  - phoneme: 0
    phonemeNumber: 3
    time: 0.82828236
    intensity: 0.7
    sustain: 0
    useRandomness: 0
    intensityRandomness: 0.1
    blendableRandomness: 0.3
    bonePositionRandomness: 0.3
    boneRotationRandomness: 0.3
  - phoneme: 0
    phonemeNumber: 2
    time: 0.8547409
    intensity: 0.7
    sustain: 0
    useRandomness: 0
    intensityRandomness: 0.1
    blendableRandomness: 0.3
    bonePositionRandomness: 0.3
    boneRotationRandomness: 0.3
  - phoneme: 0
    phonemeNumber: 4
    time: 0.8820515
    intensity: 0.85
    sustain: 0
    useRandomness: 0
    intensityRandomness: 0.1
    blendableRandomness: 0.3
    bonePositionRandomness: 0.3
    boneRotationRandomness: 0.3
  - phoneme: 0
    phonemeNumber: 0
    time: 0.90447646
    intensity: 0.7
    sustain: 0
    useRandomness: 0
    intensityRandomness: 0.1
    blendableRandomness: 0.3
    bonePositionRandomness: 0.3
    boneRotationRandomness: 0.3
  - phoneme: 0
    phonemeNumber: 4
    time: 0.9310535
    intensity: 0.85
    sustain: 0
    useRandomness: 0
    intensityRandomness: 0.1
    blendableRandomness: 0.3
    bonePositionRandomness: 0.3
    boneRotationRandomness: 0.3
  - phoneme: 0
    phonemeNumber: 7
    time: 0.9915388
    intensity: 0.85
    sustain: 0
    useRandomness: 0
    intensityRandomness: 0.1
    blendableRandomness: 0.3
    bonePositionRandomness: 0.3
    boneRotationRandomness: 0.3
  emotionData: []
  gestureData: []
  version: 1.52
  length: 2.9518368
  transcript: 
  phonemePoseCurves: []
  emotionPoseCurves: []
  targetComponentID: 0
  isPreprocessed: 0
  indexBlendables: 
  animCurves: []
  bones: []
  boneCurves: []
  boneNeutralPositions: []
  boneNeutralScales: []
  boneNeutralRotations: []
