%YAML 1.1
%TAG !u! tag:unity3d.com,2011:
--- !u!114 &11400000
MonoBehaviour:
  m_ObjectHideFlags: 0
  m_PrefabParentObject: {fileID: 0}
  m_PrefabInternal: {fileID: 0}
  m_GameObject: {fileID: 0}
  m_Enabled: 1
  m_EditorHideFlags: 0
  m_Script: {fileID: 11500000, guid: 9f44607bd270d4f4eaa8869ed9b5b85c, type: 3}
  m_Name: Patiente-05_lypsinc
  m_EditorClassIdentifier: 
  clip: {fileID: 8300000, guid: dd319cc7da77da2418e517445c2c2b23, type: 3}
  phonemeData:
  - phoneme: 0
    phonemeNumber: 7
    time: 0.035502773
    intensity: 1
    sustain: 0
    useRandomness: 0
    intensityRandomness: 0.1
    blendableRandomness: 0.3
    bonePositionRandomness: 0.3
    boneRotationRandomness: 0.3
  - phoneme: 0
    phonemeNumber: 0
    time: 0.054025955
    intensity: 1
    sustain: 0
    useRandomness: 0
    intensityRandomness: 0.1
    blendableRandomness: 0.3
    bonePositionRandomness: 0.3
    boneRotationRandomness: 0.3
  - phoneme: 0
    phonemeNumber: 9
    time: 0.1290661
    intensity: 1
    sustain: 0
    useRandomness: 0
    intensityRandomness: 0.1
    blendableRandomness: 0.3
    bonePositionRandomness: 0.3
    boneRotationRandomness: 0.3
  - phoneme: 0
    phonemeNumber: 7
    time: 0.18523186
    intensity: 1
    sustain: 0
    useRandomness: 0
    intensityRandomness: 0.1
    blendableRandomness: 0.3
    bonePositionRandomness: 0.3
    boneRotationRandomness: 0.3
  - phoneme: 0
    phonemeNumber: 3
    time: 0.19603704
    intensity: 1
    sustain: 0
    useRandomness: 0
    intensityRandomness: 0.1
    blendableRandomness: 0.3
    bonePositionRandomness: 0.3
    boneRotationRandomness: 0.3
  - phoneme: 0
    phonemeNumber: 6
    time: 0.21147303
    intensity: 1
    sustain: 0
    useRandomness: 0
    intensityRandomness: 0.1
    blendableRandomness: 0.3
    bonePositionRandomness: 0.3
    boneRotationRandomness: 0.3
  - phoneme: 0
    phonemeNumber: 8
    time: 0.22382183
    intensity: 1
    sustain: 0
    useRandomness: 0
    intensityRandomness: 0.1
    blendableRandomness: 0.3
    bonePositionRandomness: 0.3
    boneRotationRandomness: 0.3
  - phoneme: 0
    phonemeNumber: 0
    time: 0.23308341
    intensity: 1
    sustain: 0
    useRandomness: 0
    intensityRandomness: 0.1
    blendableRandomness: 0.3
    bonePositionRandomness: 0.3
    boneRotationRandomness: 0.3
  - phoneme: 0
    phonemeNumber: 4
    time: 0.250063
    intensity: 1
    sustain: 0
    useRandomness: 0
    intensityRandomness: 0.1
    blendableRandomness: 0.3
    bonePositionRandomness: 0.3
    boneRotationRandomness: 0.3
  - phoneme: 0
    phonemeNumber: 4
    time: 0.2639554
    intensity: 1
    sustain: 0
    useRandomness: 0
    intensityRandomness: 0.1
    blendableRandomness: 0.3
    bonePositionRandomness: 0.3
    boneRotationRandomness: 0.3
  - phoneme: 0
    phonemeNumber: 2
    time: 0.2763042
    intensity: 1
    sustain: 0
    useRandomness: 0
    intensityRandomness: 0.1
    blendableRandomness: 0.3
    bonePositionRandomness: 0.3
    boneRotationRandomness: 0.3
  - phoneme: 0
    phonemeNumber: 4
    time: 0.28710938
    intensity: 1
    sustain: 0
    useRandomness: 0
    intensityRandomness: 0.1
    blendableRandomness: 0.3
    bonePositionRandomness: 0.3
    boneRotationRandomness: 0.3
  - phoneme: 0
    phonemeNumber: 6
    time: 0.29482737
    intensity: 1
    sustain: 0
    useRandomness: 0
    intensityRandomness: 0.1
    blendableRandomness: 0.3
    bonePositionRandomness: 0.3
    boneRotationRandomness: 0.3
  - phoneme: 0
    phonemeNumber: 1
    time: 0.30563256
    intensity: 1
    sustain: 0
    useRandomness: 0
    intensityRandomness: 0.1
    blendableRandomness: 0.3
    bonePositionRandomness: 0.3
    boneRotationRandomness: 0.3
  - phoneme: 0
    phonemeNumber: 4
    time: 0.32878655
    intensity: 1
    sustain: 0
    useRandomness: 0
    intensityRandomness: 0.1
    blendableRandomness: 0.3
    bonePositionRandomness: 0.3
    boneRotationRandomness: 0.3
  - phoneme: 0
    phonemeNumber: 2
    time: 0.34885332
    intensity: 1
    sustain: 0
    useRandomness: 0
    intensityRandomness: 0.1
    blendableRandomness: 0.3
    bonePositionRandomness: 0.3
    boneRotationRandomness: 0.3
  - phoneme: 0
    phonemeNumber: 4
    time: 0.3550277
    intensity: 1
    sustain: 0
    useRandomness: 0
    intensityRandomness: 0.1
    blendableRandomness: 0.3
    bonePositionRandomness: 0.3
    boneRotationRandomness: 0.3
  - phoneme: 0
    phonemeNumber: 4
    time: 0.37046373
    intensity: 1
    sustain: 0
    useRandomness: 0
    intensityRandomness: 0.1
    blendableRandomness: 0.3
    bonePositionRandomness: 0.3
    boneRotationRandomness: 0.3
  - phoneme: 0
    phonemeNumber: 4
    time: 0.3766381
    intensity: 1
    sustain: 0
    useRandomness: 0
    intensityRandomness: 0.1
    blendableRandomness: 0.3
    bonePositionRandomness: 0.3
    boneRotationRandomness: 0.3
  - phoneme: 0
    phonemeNumber: 4
    time: 0.3889869
    intensity: 1
    sustain: 0
    useRandomness: 0
    intensityRandomness: 0.1
    blendableRandomness: 0.3
    bonePositionRandomness: 0.3
    boneRotationRandomness: 0.3
  - phoneme: 0
    phonemeNumber: 1
    time: 0.39979208
    intensity: 1
    sustain: 0
    useRandomness: 0
    intensityRandomness: 0.1
    blendableRandomness: 0.3
    bonePositionRandomness: 0.3
    boneRotationRandomness: 0.3
  - phoneme: 0
    phonemeNumber: 0
    time: 0.41214088
    intensity: 1
    sustain: 0
    useRandomness: 0
    intensityRandomness: 0.1
    blendableRandomness: 0.3
    bonePositionRandomness: 0.3
    boneRotationRandomness: 0.3
  - phoneme: 0
    phonemeNumber: 4
    time: 0.42912045
    intensity: 1
    sustain: 0
    useRandomness: 0
    intensityRandomness: 0.1
    blendableRandomness: 0.3
    bonePositionRandomness: 0.3
    boneRotationRandomness: 0.3
  - phoneme: 0
    phonemeNumber: 0
    time: 0.44455647
    intensity: 1
    sustain: 0
    useRandomness: 0
    intensityRandomness: 0.1
    blendableRandomness: 0.3
    bonePositionRandomness: 0.3
    boneRotationRandomness: 0.3
  - phoneme: 0
    phonemeNumber: 3
    time: 0.46307963
    intensity: 1
    sustain: 0
    useRandomness: 0
    intensityRandomness: 0.1
    blendableRandomness: 0.3
    bonePositionRandomness: 0.3
    boneRotationRandomness: 0.3
  - phoneme: 0
    phonemeNumber: 9
    time: 0.49542034
    intensity: 1
    sustain: 0
    useRandomness: 0
    intensityRandomness: 0.1
    blendableRandomness: 0.3
    bonePositionRandomness: 0.3
    boneRotationRandomness: 0.3
  - phoneme: 0
    phonemeNumber: 4
    time: 0.5217364
    intensity: 1
    sustain: 0
    useRandomness: 0
    intensityRandomness: 0.1
    blendableRandomness: 0.3
    bonePositionRandomness: 0.3
    boneRotationRandomness: 0.3
  - phoneme: 0
    phonemeNumber: 1
    time: 0.5418032
    intensity: 1
    sustain: 0
    useRandomness: 0
    intensityRandomness: 0.1
    blendableRandomness: 0.3
    bonePositionRandomness: 0.3
    boneRotationRandomness: 0.3
  - phoneme: 0
    phonemeNumber: 3
    time: 0.54952115
    intensity: 1
    sustain: 0
    useRandomness: 0
    intensityRandomness: 0.1
    blendableRandomness: 0.3
    bonePositionRandomness: 0.3
    boneRotationRandomness: 0.3
  - phoneme: 0
    phonemeNumber: 4
    time: 0.5603264
    intensity: 1
    sustain: 0
    useRandomness: 0
    intensityRandomness: 0.1
    blendableRandomness: 0.3
    bonePositionRandomness: 0.3
    boneRotationRandomness: 0.3
  - phoneme: 0
    phonemeNumber: 9
    time: 0.58828497
    intensity: 1
    sustain: 0
    useRandomness: 0
    intensityRandomness: 0.1
    blendableRandomness: 0.3
    bonePositionRandomness: 0.3
    boneRotationRandomness: 0.3
  - phoneme: 0
    phonemeNumber: 3
    time: 0.60972154
    intensity: 1
    sustain: 0
    useRandomness: 0
    intensityRandomness: 0.1
    blendableRandomness: 0.3
    bonePositionRandomness: 0.3
    boneRotationRandomness: 0.3
  - phoneme: 0
    phonemeNumber: 7
    time: 0.62052673
    intensity: 1
    sustain: 0
    useRandomness: 0
    intensityRandomness: 0.1
    blendableRandomness: 0.3
    bonePositionRandomness: 0.3
    boneRotationRandomness: 0.3
  - phoneme: 0
    phonemeNumber: 0
    time: 0.6375063
    intensity: 1
    sustain: 0
    useRandomness: 0
    intensityRandomness: 0.1
    blendableRandomness: 0.3
    bonePositionRandomness: 0.3
    boneRotationRandomness: 0.3
  - phoneme: 0
    phonemeNumber: 8
    time: 0.6544859
    intensity: 1
    sustain: 0
    useRandomness: 0
    intensityRandomness: 0.1
    blendableRandomness: 0.3
    bonePositionRandomness: 0.3
    boneRotationRandomness: 0.3
  - phoneme: 0
    phonemeNumber: 2
    time: 0.6591167
    intensity: 1
    sustain: 0
    useRandomness: 0
    intensityRandomness: 0.1
    blendableRandomness: 0.3
    bonePositionRandomness: 0.3
    boneRotationRandomness: 0.3
  - phoneme: 0
    phonemeNumber: 6
    time: 0.6637475
    intensity: 1
    sustain: 0
    useRandomness: 0
    intensityRandomness: 0.1
    blendableRandomness: 0.3
    bonePositionRandomness: 0.3
    boneRotationRandomness: 0.3
  - phoneme: 0
    phonemeNumber: 0
    time: 0.6745527
    intensity: 1
    sustain: 0
    useRandomness: 0
    intensityRandomness: 0.1
    blendableRandomness: 0.3
    bonePositionRandomness: 0.3
    boneRotationRandomness: 0.3
  - phoneme: 0
    phonemeNumber: 8
    time: 0.70079386
    intensity: 1
    sustain: 0
    useRandomness: 0
    intensityRandomness: 0.1
    blendableRandomness: 0.3
    bonePositionRandomness: 0.3
    boneRotationRandomness: 0.3
  - phoneme: 0
    phonemeNumber: 0
    time: 0.7085119
    intensity: 1
    sustain: 0
    useRandomness: 0
    intensityRandomness: 0.1
    blendableRandomness: 0.3
    bonePositionRandomness: 0.3
    boneRotationRandomness: 0.3
  - phoneme: 0
    phonemeNumber: 4
    time: 0.7316658
    intensity: 1
    sustain: 0
    useRandomness: 0
    intensityRandomness: 0.1
    blendableRandomness: 0.3
    bonePositionRandomness: 0.3
    boneRotationRandomness: 0.3
  - phoneme: 0
    phonemeNumber: 2
    time: 0.7532762
    intensity: 1
    sustain: 0
    useRandomness: 0
    intensityRandomness: 0.1
    blendableRandomness: 0.3
    bonePositionRandomness: 0.3
    boneRotationRandomness: 0.3
  - phoneme: 0
    phonemeNumber: 2
    time: 0.77643025
    intensity: 1
    sustain: 0
    useRandomness: 0
    intensityRandomness: 0.1
    blendableRandomness: 0.3
    bonePositionRandomness: 0.3
    boneRotationRandomness: 0.3
  - phoneme: 0
    phonemeNumber: 4
    time: 0.78260463
    intensity: 1
    sustain: 0
    useRandomness: 0
    intensityRandomness: 0.1
    blendableRandomness: 0.3
    bonePositionRandomness: 0.3
    boneRotationRandomness: 0.3
  - phoneme: 0
    phonemeNumber: 0
    time: 0.8011278
    intensity: 1
    sustain: 0
    useRandomness: 0
    intensityRandomness: 0.1
    blendableRandomness: 0.3
    bonePositionRandomness: 0.3
    boneRotationRandomness: 0.3
  - phoneme: 0
    phonemeNumber: 4
    time: 0.8150202
    intensity: 1
    sustain: 0
    useRandomness: 0
    intensityRandomness: 0.1
    blendableRandomness: 0.3
    bonePositionRandomness: 0.3
    boneRotationRandomness: 0.3
  - phoneme: 0
    phonemeNumber: 1
    time: 0.8319997
    intensity: 1
    sustain: 0
    useRandomness: 0
    intensityRandomness: 0.1
    blendableRandomness: 0.3
    bonePositionRandomness: 0.3
    boneRotationRandomness: 0.3
  - phoneme: 0
    phonemeNumber: 4
    time: 0.84280497
    intensity: 1
    sustain: 0
    useRandomness: 0
    intensityRandomness: 0.1
    blendableRandomness: 0.3
    bonePositionRandomness: 0.3
    boneRotationRandomness: 0.3
  - phoneme: 0
    phonemeNumber: 0
    time: 0.8582409
    intensity: 1
    sustain: 0
    useRandomness: 0
    intensityRandomness: 0.1
    blendableRandomness: 0.3
    bonePositionRandomness: 0.3
    boneRotationRandomness: 0.3
  - phoneme: 0
    phonemeNumber: 2
    time: 0.8705897
    intensity: 1
    sustain: 0
    useRandomness: 0
    intensityRandomness: 0.1
    blendableRandomness: 0.3
    bonePositionRandomness: 0.3
    boneRotationRandomness: 0.3
  - phoneme: 0
    phonemeNumber: 5
    time: 0.9228751
    intensity: 1
    sustain: 0
    useRandomness: 0
    intensityRandomness: 0.1
    blendableRandomness: 0.3
    bonePositionRandomness: 0.3
    boneRotationRandomness: 0.3
  emotionData: []
  gestureData: []
  version: 1.52
  length: 6.4783673
  transcript: 
  phonemePoseCurves: []
  emotionPoseCurves: []
  targetComponentID: 0
  isPreprocessed: 0
  indexBlendables: 
  animCurves: []
  bones: []
  boneCurves: []
  boneNeutralPositions: []
  boneNeutralScales: []
  boneNeutralRotations: []
