%YAML 1.1
%TAG !u! tag:unity3d.com,2011:
--- !u!114 &11400000
MonoBehaviour:
  m_ObjectHideFlags: 0
  m_PrefabParentObject: {fileID: 0}
  m_PrefabInternal: {fileID: 0}
  m_GameObject: {fileID: 0}
  m_Enabled: 1
  m_EditorHideFlags: 0
  m_Script: {fileID: 11500000, guid: 9f44607bd270d4f4eaa8869ed9b5b85c, type: 3}
  m_Name: Patiente-01_lypsinc
  m_EditorClassIdentifier: 
  clip: {fileID: 8300000, guid: 68b8fc94bfada054f8b0ce68ec7fc9ac, type: 3}
  phonemeData:
  - phoneme: 0
    phonemeNumber: 9
    time: 0
    intensity: 0.75
    sustain: 0
    useRandomness: 0
    intensityRandomness: 0.1
    blendableRandomness: 0.3
    bonePositionRandomness: 0.3
    boneRotationRandomness: 0.3
  - phoneme: 0
    phonemeNumber: 9
    time: 0.055089194
    intensity: 0.75
    sustain: 0
    useRandomness: 0
    intensityRandomness: 0.1
    blendableRandomness: 0.3
    bonePositionRandomness: 0.3
    boneRotationRandomness: 0.3
  - phoneme: 0
    phonemeNumber: 7
    time: 0.070373595
    intensity: 0.75
    sustain: 0
    useRandomness: 0
    intensityRandomness: 0.1
    blendableRandomness: 0.3
    bonePositionRandomness: 0.3
    boneRotationRandomness: 0.3
  - phoneme: 0
    phonemeNumber: 4
    time: 0.122770205
    intensity: 1
    sustain: 0
    useRandomness: 0
    intensityRandomness: 0.1
    blendableRandomness: 0.3
    bonePositionRandomness: 0.3
    boneRotationRandomness: 0.3
  - phoneme: 0
    phonemeNumber: 4
    time: 0.1431249
    intensity: 0.75
    sustain: 0
    useRandomness: 0
    intensityRandomness: 0.1
    blendableRandomness: 0.3
    bonePositionRandomness: 0.3
    boneRotationRandomness: 0.3
  - phoneme: 0
    phonemeNumber: 0
    time: 0.15816794
    intensity: 0.75
    sustain: 0
    useRandomness: 0
    intensityRandomness: 0.1
    blendableRandomness: 0.3
    bonePositionRandomness: 0.3
    boneRotationRandomness: 0.3
  - phoneme: 0
    phonemeNumber: 2
    time: 0.1740463
    intensity: 0.75
    sustain: 0
    useRandomness: 0
    intensityRandomness: 0.1
    blendableRandomness: 0.3
    bonePositionRandomness: 0.3
    boneRotationRandomness: 0.3
  - phoneme: 0
    phonemeNumber: 4
    time: 0.20266543
    intensity: 0.75
    sustain: 0
    useRandomness: 0
    intensityRandomness: 0.1
    blendableRandomness: 0.3
    bonePositionRandomness: 0.3
    boneRotationRandomness: 0.3
  - phoneme: 0
    phonemeNumber: 1
    time: 0.21842831
    intensity: 0.75
    sustain: 0
    useRandomness: 0
    intensityRandomness: 0.1
    blendableRandomness: 0.3
    bonePositionRandomness: 0.3
    boneRotationRandomness: 0.3
  - phoneme: 0
    phonemeNumber: 4
    time: 0.24532025
    intensity: 0.75
    sustain: 0
    useRandomness: 0
    intensityRandomness: 0.1
    blendableRandomness: 0.3
    bonePositionRandomness: 0.3
    boneRotationRandomness: 0.3
  - phoneme: 0
    phonemeNumber: 4
    time: 0.26716077
    intensity: 0.75
    sustain: 0
    useRandomness: 0
    intensityRandomness: 0.1
    blendableRandomness: 0.3
    bonePositionRandomness: 0.3
    boneRotationRandomness: 0.3
  - phoneme: 0
    phonemeNumber: 9
    time: 0.29293996
    intensity: 0.75
    sustain: 0
    useRandomness: 0
    intensityRandomness: 0.1
    blendableRandomness: 0.3
    bonePositionRandomness: 0.3
    boneRotationRandomness: 0.3
  - phoneme: 0
    phonemeNumber: 9
    time: 0.36509395
    intensity: 1
    sustain: 0
    useRandomness: 0
    intensityRandomness: 0.1
    blendableRandomness: 0.3
    bonePositionRandomness: 0.3
    boneRotationRandomness: 0.3
  - phoneme: 0
    phonemeNumber: 9
    time: 0.4512067
    intensity: 0.75
    sustain: 0
    useRandomness: 0
    intensityRandomness: 0.1
    blendableRandomness: 0.3
    bonePositionRandomness: 0.3
    boneRotationRandomness: 0.3
  - phoneme: 0
    phonemeNumber: 4
    time: 0.46086082
    intensity: 0.75
    sustain: 0
    useRandomness: 0
    intensityRandomness: 0.1
    blendableRandomness: 0.3
    bonePositionRandomness: 0.3
    boneRotationRandomness: 0.3
  - phoneme: 0
    phonemeNumber: 4
    time: 0.47063416
    intensity: 0.75
    sustain: 0
    useRandomness: 0
    intensityRandomness: 0.1
    blendableRandomness: 0.3
    bonePositionRandomness: 0.3
    boneRotationRandomness: 0.3
  - phoneme: 0
    phonemeNumber: 2
    time: 0.49540442
    intensity: 0.75
    sustain: 0
    useRandomness: 0
    intensityRandomness: 0.1
    blendableRandomness: 0.3
    bonePositionRandomness: 0.3
    boneRotationRandomness: 0.3
  - phoneme: 0
    phonemeNumber: 7
    time: 0.5066636
    intensity: 0.75
    sustain: 0
    useRandomness: 0
    intensityRandomness: 0.1
    blendableRandomness: 0.3
    bonePositionRandomness: 0.3
    boneRotationRandomness: 0.3
  - phoneme: 0
    phonemeNumber: 0
    time: 0.5336856
    intensity: 0.75
    sustain: 0
    useRandomness: 0
    intensityRandomness: 0.1
    blendableRandomness: 0.3
    bonePositionRandomness: 0.3
    boneRotationRandomness: 0.3
  - phoneme: 0
    phonemeNumber: 4
    time: 0.5471967
    intensity: 0.75
    sustain: 0
    useRandomness: 0
    intensityRandomness: 0.1
    blendableRandomness: 0.3
    bonePositionRandomness: 0.3
    boneRotationRandomness: 0.3
  - phoneme: 0
    phonemeNumber: 0
    time: 0.5539522
    intensity: 0.75
    sustain: 0
    useRandomness: 0
    intensityRandomness: 0.1
    blendableRandomness: 0.3
    bonePositionRandomness: 0.3
    boneRotationRandomness: 0.3
  - phoneme: 0
    phonemeNumber: 4
    time: 0.5787224
    intensity: 0.75
    sustain: 0
    useRandomness: 0
    intensityRandomness: 0.1
    blendableRandomness: 0.3
    bonePositionRandomness: 0.3
    boneRotationRandomness: 0.3
  - phoneme: 0
    phonemeNumber: 4
    time: 0.6034927
    intensity: 0.75
    sustain: 0
    useRandomness: 0
    intensityRandomness: 0.1
    blendableRandomness: 0.3
    bonePositionRandomness: 0.3
    boneRotationRandomness: 0.3
  - phoneme: 0
    phonemeNumber: 4
    time: 0.6147518
    intensity: 0.75
    sustain: 0
    useRandomness: 0
    intensityRandomness: 0.1
    blendableRandomness: 0.3
    bonePositionRandomness: 0.3
    boneRotationRandomness: 0.3
  - phoneme: 0
    phonemeNumber: 1
    time: 0.65528494
    intensity: 0.75
    sustain: 0
    useRandomness: 0
    intensityRandomness: 0.1
    blendableRandomness: 0.3
    bonePositionRandomness: 0.3
    boneRotationRandomness: 0.3
  - phoneme: 0
    phonemeNumber: 4
    time: 0.71608454
    intensity: 0.75
    sustain: 0
    useRandomness: 0
    intensityRandomness: 0.1
    blendableRandomness: 0.3
    bonePositionRandomness: 0.3
    boneRotationRandomness: 0.3
  - phoneme: 0
    phonemeNumber: 0
    time: 0.7318474
    intensity: 0.75
    sustain: 0
    useRandomness: 0
    intensityRandomness: 0.1
    blendableRandomness: 0.3
    bonePositionRandomness: 0.3
    boneRotationRandomness: 0.3
  - phoneme: 0
    phonemeNumber: 4
    time: 0.7543658
    intensity: 0.75
    sustain: 0
    useRandomness: 0
    intensityRandomness: 0.1
    blendableRandomness: 0.3
    bonePositionRandomness: 0.3
    boneRotationRandomness: 0.3
  - phoneme: 0
    phonemeNumber: 3
    time: 0.77463233
    intensity: 0.75
    sustain: 0
    useRandomness: 0
    intensityRandomness: 0.1
    blendableRandomness: 0.3
    bonePositionRandomness: 0.3
    boneRotationRandomness: 0.3
  - phoneme: 0
    phonemeNumber: 7
    time: 0.79489887
    intensity: 0.75
    sustain: 0
    useRandomness: 0
    intensityRandomness: 0.1
    blendableRandomness: 0.3
    bonePositionRandomness: 0.3
    boneRotationRandomness: 0.3
  - phoneme: 0
    phonemeNumber: 4
    time: 0.81066173
    intensity: 0.75
    sustain: 0
    useRandomness: 0
    intensityRandomness: 0.1
    blendableRandomness: 0.3
    bonePositionRandomness: 0.3
    boneRotationRandomness: 0.3
  - phoneme: 0
    phonemeNumber: 0
    time: 0.8331801
    intensity: 0.75
    sustain: 0
    useRandomness: 0
    intensityRandomness: 0.1
    blendableRandomness: 0.3
    bonePositionRandomness: 0.3
    boneRotationRandomness: 0.3
  - phoneme: 0
    phonemeNumber: 0
    time: 0.862454
    intensity: 0.75
    sustain: 0
    useRandomness: 0
    intensityRandomness: 0.1
    blendableRandomness: 0.3
    bonePositionRandomness: 0.3
    boneRotationRandomness: 0.3
  - phoneme: 0
    phonemeNumber: 4
    time: 0.8782169
    intensity: 0.75
    sustain: 0
    useRandomness: 0
    intensityRandomness: 0.1
    blendableRandomness: 0.3
    bonePositionRandomness: 0.3
    boneRotationRandomness: 0.3
  - phoneme: 0
    phonemeNumber: 6
    time: 0.8962316
    intensity: 0.75
    sustain: 0
    useRandomness: 0
    intensityRandomness: 0.1
    blendableRandomness: 0.3
    bonePositionRandomness: 0.3
    boneRotationRandomness: 0.3
  - phoneme: 0
    phonemeNumber: 0
    time: 0.9300092
    intensity: 0.75
    sustain: 0
    useRandomness: 0
    intensityRandomness: 0.1
    blendableRandomness: 0.3
    bonePositionRandomness: 0.3
    boneRotationRandomness: 0.3
  - phoneme: 0
    phonemeNumber: 1
    time: 0.9547793
    intensity: 0.75
    sustain: 0
    useRandomness: 0
    intensityRandomness: 0.1
    blendableRandomness: 0.3
    bonePositionRandomness: 0.3
    boneRotationRandomness: 0.3
  - phoneme: 0
    phonemeNumber: 4
    time: 0.9795496
    intensity: 0.75
    sustain: 0
    useRandomness: 0
    intensityRandomness: 0.1
    blendableRandomness: 0.3
    bonePositionRandomness: 0.3
    boneRotationRandomness: 0.3
  emotionData:
  - emotion: Inquietude_AVE
    isMixer: 0
    mixer:
      emotions: []
      mixingMode: 0
      displayColor: {r: 0, g: 0, b: 0, a: 1}
    startTime: 0.31611896
    endTime: 0.57026607
    blendInTime: 0.025
    blendOutTime: -0.025
    blendToMarker: 0
    blendFromMarker: 0
    customBlendIn: 1
    customBlendOut: 1
    intensity: 1
    continuousVariation: 0
    variationFrequency: 0.5
    intensityVariation: 0.35
    blendableVariation: 0.1
    bonePositionVariation: 0.1
    boneRotationVariation: 0.1
    invalid: 0
  gestureData: []
  version: 1.52
  length: 4.4408164
  transcript: 
  phonemePoseCurves: []
  emotionPoseCurves: []
  targetComponentID: 0
  isPreprocessed: 0
  indexBlendables: 
  animCurves: []
  bones: []
  boneCurves: []
  boneNeutralPositions: []
  boneNeutralScales: []
  boneNeutralRotations: []
