%YAML 1.1
%TAG !u! tag:unity3d.com,2011:
--- !u!114 &11400000
MonoBehaviour:
  m_ObjectHideFlags: 0
  m_PrefabParentObject: {fileID: 0}
  m_PrefabInternal: {fileID: 0}
  m_GameObject: {fileID: 0}
  m_Enabled: 1
  m_EditorHideFlags: 0
  m_Script: {fileID: 11500000, guid: 9f44607bd270d4f4eaa8869ed9b5b85c, type: 3}
  m_Name: Patiente-04_lypsinc
  m_EditorClassIdentifier: 
  clip: {fileID: 8300000, guid: d83c71ac6895a1149bb726c1e3465883, type: 3}
  phonemeData:
  - phoneme: 0
    phonemeNumber: 4
    time: 0.008602528
    intensity: 0.9
    sustain: 0
    useRandomness: 0
    intensityRandomness: 0.1
    blendableRandomness: 0.3
    bonePositionRandomness: 0.3
    boneRotationRandomness: 0.3
  - phoneme: 0
    phonemeNumber: 4
    time: 0.036560744
    intensity: 0.9
    sustain: 0
    useRandomness: 0
    intensityRandomness: 0.1
    blendableRandomness: 0.3
    bonePositionRandomness: 0.3
    boneRotationRandomness: 0.3
  - phoneme: 0
    phonemeNumber: 0
    time: 0.05591643
    intensity: 0.9
    sustain: 0
    useRandomness: 0
    intensityRandomness: 0.1
    blendableRandomness: 0.3
    bonePositionRandomness: 0.3
    boneRotationRandomness: 0.3
  - phoneme: 0
    phonemeNumber: 4
    time: 0.070970856
    intensity: 0.9
    sustain: 0
    useRandomness: 0
    intensityRandomness: 0.1
    blendableRandomness: 0.3
    bonePositionRandomness: 0.3
    boneRotationRandomness: 0.3
  - phoneme: 0
    phonemeNumber: 4
    time: 0.08602528
    intensity: 0.9
    sustain: 0
    useRandomness: 0
    intensityRandomness: 0.1
    blendableRandomness: 0.3
    bonePositionRandomness: 0.3
    boneRotationRandomness: 0.3
  - phoneme: 0
    phonemeNumber: 0
    time: 0.10538097
    intensity: 0.9
    sustain: 0
    useRandomness: 0
    intensityRandomness: 0.1
    blendableRandomness: 0.3
    bonePositionRandomness: 0.3
    boneRotationRandomness: 0.3
  - phoneme: 0
    phonemeNumber: 4
    time: 0.13207719
    intensity: 0.9
    sustain: 0
    useRandomness: 0
    intensityRandomness: 0.1
    blendableRandomness: 0.3
    bonePositionRandomness: 0.3
    boneRotationRandomness: 0.3
  - phoneme: 0
    phonemeNumber: 3
    time: 0.1547744
    intensity: 0.7
    sustain: 0
    useRandomness: 0
    intensityRandomness: 0.1
    blendableRandomness: 0.3
    bonePositionRandomness: 0.3
    boneRotationRandomness: 0.3
  - phoneme: 0
    phonemeNumber: 2
    time: 0.17850246
    intensity: 0.9
    sustain: 0
    useRandomness: 0
    intensityRandomness: 0.1
    blendableRandomness: 0.3
    bonePositionRandomness: 0.3
    boneRotationRandomness: 0.3
  - phoneme: 0
    phonemeNumber: 7
    time: 0.22088644
    intensity: 0.9
    sustain: 0
    useRandomness: 0
    intensityRandomness: 0.1
    blendableRandomness: 0.3
    bonePositionRandomness: 0.3
    boneRotationRandomness: 0.3
  - phoneme: 0
    phonemeNumber: 4
    time: 0.2602265
    intensity: 0.9
    sustain: 0
    useRandomness: 0
    intensityRandomness: 0.1
    blendableRandomness: 0.3
    bonePositionRandomness: 0.3
    boneRotationRandomness: 0.3
  - phoneme: 0
    phonemeNumber: 1
    time: 0.2752809
    intensity: 0.9
    sustain: 0
    useRandomness: 0
    intensityRandomness: 0.1
    blendableRandomness: 0.3
    bonePositionRandomness: 0.3
    boneRotationRandomness: 0.3
  - phoneme: 0
    phonemeNumber: 0
    time: 0.2980965
    intensity: 0.9
    sustain: 0
    useRandomness: 0
    intensityRandomness: 0.1
    blendableRandomness: 0.3
    bonePositionRandomness: 0.3
    boneRotationRandomness: 0.3
  - phoneme: 0
    phonemeNumber: 8
    time: 0.31829354
    intensity: 0.9
    sustain: 0
    useRandomness: 0
    intensityRandomness: 0.1
    blendableRandomness: 0.3
    bonePositionRandomness: 0.3
    boneRotationRandomness: 0.3
  - phoneme: 0
    phonemeNumber: 2
    time: 0.33885455
    intensity: 0.9
    sustain: 0
    useRandomness: 0
    intensityRandomness: 0.1
    blendableRandomness: 0.3
    bonePositionRandomness: 0.3
    boneRotationRandomness: 0.3
  - phoneme: 0
    phonemeNumber: 4
    time: 0.35684893
    intensity: 0.9
    sustain: 0
    useRandomness: 0
    intensityRandomness: 0.1
    blendableRandomness: 0.3
    bonePositionRandomness: 0.3
    boneRotationRandomness: 0.3
  - phoneme: 0
    phonemeNumber: 4
    time: 0.3763606
    intensity: 0.9
    sustain: 0
    useRandomness: 0
    intensityRandomness: 0.1
    blendableRandomness: 0.3
    bonePositionRandomness: 0.3
    boneRotationRandomness: 0.3
  - phoneme: 0
    phonemeNumber: 9
    time: 0.4138181
    intensity: 0.5
    sustain: 0
    useRandomness: 0
    intensityRandomness: 0.1
    blendableRandomness: 0.3
    bonePositionRandomness: 0.3
    boneRotationRandomness: 0.3
  - phoneme: 0
    phonemeNumber: 9
    time: 0.47048128
    intensity: 0.5
    sustain: 0
    useRandomness: 0
    intensityRandomness: 0.1
    blendableRandomness: 0.3
    bonePositionRandomness: 0.3
    boneRotationRandomness: 0.3
  - phoneme: 0
    phonemeNumber: 4
    time: 0.5075491
    intensity: 0.9
    sustain: 0
    useRandomness: 0
    intensityRandomness: 0.1
    blendableRandomness: 0.3
    bonePositionRandomness: 0.3
    boneRotationRandomness: 0.3
  - phoneme: 0
    phonemeNumber: 0
    time: 0.52742946
    intensity: 0.9
    sustain: 0
    useRandomness: 0
    intensityRandomness: 0.1
    blendableRandomness: 0.3
    bonePositionRandomness: 0.3
    boneRotationRandomness: 0.3
  - phoneme: 0
    phonemeNumber: 5
    time: 0.5590557
    intensity: 0.9
    sustain: 0
    useRandomness: 0
    intensityRandomness: 0.1
    blendableRandomness: 0.3
    bonePositionRandomness: 0.3
    boneRotationRandomness: 0.3
  - phoneme: 0
    phonemeNumber: 4
    time: 0.5937304
    intensity: 0.9
    sustain: 0
    useRandomness: 0
    intensityRandomness: 0.1
    blendableRandomness: 0.3
    bonePositionRandomness: 0.3
    boneRotationRandomness: 0.3
  - phoneme: 0
    phonemeNumber: 1
    time: 0.60815614
    intensity: 0.9
    sustain: 0
    useRandomness: 0
    intensityRandomness: 0.1
    blendableRandomness: 0.3
    bonePositionRandomness: 0.3
    boneRotationRandomness: 0.3
  - phoneme: 0
    phonemeNumber: 4
    time: 0.62425995
    intensity: 0.9
    sustain: 0
    useRandomness: 0
    intensityRandomness: 0.1
    blendableRandomness: 0.3
    bonePositionRandomness: 0.3
    boneRotationRandomness: 0.3
  - phoneme: 0
    phonemeNumber: 0
    time: 0.6371117
    intensity: 0.9
    sustain: 0
    useRandomness: 0
    intensityRandomness: 0.1
    blendableRandomness: 0.3
    bonePositionRandomness: 0.3
    boneRotationRandomness: 0.3
  - phoneme: 0
    phonemeNumber: 4
    time: 0.66014004
    intensity: 0.9
    sustain: 0
    useRandomness: 0
    intensityRandomness: 0.1
    blendableRandomness: 0.3
    bonePositionRandomness: 0.3
    boneRotationRandomness: 0.3
  - phoneme: 0
    phonemeNumber: 0
    time: 0.67314786
    intensity: 0.9
    sustain: 0
    useRandomness: 0
    intensityRandomness: 0.1
    blendableRandomness: 0.3
    bonePositionRandomness: 0.3
    boneRotationRandomness: 0.3
  - phoneme: 0
    phonemeNumber: 4
    time: 0.68862295
    intensity: 0.9
    sustain: 0
    useRandomness: 0
    intensityRandomness: 0.1
    blendableRandomness: 0.3
    bonePositionRandomness: 0.3
    boneRotationRandomness: 0.3
  - phoneme: 0
    phonemeNumber: 0
    time: 0.70268
    intensity: 0.9
    sustain: 0
    useRandomness: 0
    intensityRandomness: 0.1
    blendableRandomness: 0.3
    bonePositionRandomness: 0.3
    boneRotationRandomness: 0.3
  - phoneme: 0
    phonemeNumber: 4
    time: 0.7143785
    intensity: 0.9
    sustain: 0
    useRandomness: 0
    intensityRandomness: 0.1
    blendableRandomness: 0.3
    bonePositionRandomness: 0.3
    boneRotationRandomness: 0.3
  - phoneme: 0
    phonemeNumber: 2
    time: 0.73551613
    intensity: 0.9
    sustain: 0
    useRandomness: 0
    intensityRandomness: 0.1
    blendableRandomness: 0.3
    bonePositionRandomness: 0.3
    boneRotationRandomness: 0.3
  - phoneme: 0
    phonemeNumber: 4
    time: 0.7527212
    intensity: 0.9
    sustain: 0
    useRandomness: 0
    intensityRandomness: 0.1
    blendableRandomness: 0.3
    bonePositionRandomness: 0.3
    boneRotationRandomness: 0.3
  - phoneme: 0
    phonemeNumber: 0
    time: 0.77207685
    intensity: 0.9
    sustain: 0
    useRandomness: 0
    intensityRandomness: 0.1
    blendableRandomness: 0.3
    bonePositionRandomness: 0.3
    boneRotationRandomness: 0.3
  - phoneme: 0
    phonemeNumber: 3
    time: 0.78283006
    intensity: 0.9
    sustain: 0
    useRandomness: 0
    intensityRandomness: 0.1
    blendableRandomness: 0.3
    bonePositionRandomness: 0.3
    boneRotationRandomness: 0.3
  - phoneme: 0
    phonemeNumber: 4
    time: 0.79573387
    intensity: 0.9
    sustain: 0
    useRandomness: 0
    intensityRandomness: 0.1
    blendableRandomness: 0.3
    bonePositionRandomness: 0.3
    boneRotationRandomness: 0.3
  - phoneme: 0
    phonemeNumber: 1
    time: 0.8086376
    intensity: 0.9
    sustain: 0
    useRandomness: 0
    intensityRandomness: 0.1
    blendableRandomness: 0.3
    bonePositionRandomness: 0.3
    boneRotationRandomness: 0.3
  - phoneme: 0
    phonemeNumber: 1
    time: 0.83197796
    intensity: 0.9
    sustain: 0
    useRandomness: 0
    intensityRandomness: 0.1
    blendableRandomness: 0.3
    bonePositionRandomness: 0.3
    boneRotationRandomness: 0.3
  - phoneme: 0
    phonemeNumber: 4
    time: 0.85070497
    intensity: 0.9
    sustain: 0
    useRandomness: 0
    intensityRandomness: 0.1
    blendableRandomness: 0.3
    bonePositionRandomness: 0.3
    boneRotationRandomness: 0.3
  - phoneme: 0
    phonemeNumber: 1
    time: 0.86413336
    intensity: 0.9
    sustain: 0
    useRandomness: 0
    intensityRandomness: 0.1
    blendableRandomness: 0.3
    bonePositionRandomness: 0.3
    boneRotationRandomness: 0.3
  - phoneme: 0
    phonemeNumber: 4
    time: 0.8791878
    intensity: 0.9
    sustain: 0
    useRandomness: 0
    intensityRandomness: 0.1
    blendableRandomness: 0.3
    bonePositionRandomness: 0.3
    boneRotationRandomness: 0.3
  - phoneme: 0
    phonemeNumber: 0
    time: 0.8929849
    intensity: 0.9
    sustain: 0
    useRandomness: 0
    intensityRandomness: 0.1
    blendableRandomness: 0.3
    bonePositionRandomness: 0.3
    boneRotationRandomness: 0.3
  - phoneme: 0
    phonemeNumber: 4
    time: 0.90856403
    intensity: 0.9
    sustain: 0
    useRandomness: 0
    intensityRandomness: 0.1
    blendableRandomness: 0.3
    bonePositionRandomness: 0.3
    boneRotationRandomness: 0.3
  - phoneme: 0
    phonemeNumber: 0
    time: 0.93794024
    intensity: 0.9
    sustain: 0
    useRandomness: 0
    intensityRandomness: 0.1
    blendableRandomness: 0.3
    bonePositionRandomness: 0.3
    boneRotationRandomness: 0.3
  - phoneme: 0
    phonemeNumber: 4
    time: 0.96725976
    intensity: 0.9
    sustain: 0
    useRandomness: 0
    intensityRandomness: 0.1
    blendableRandomness: 0.3
    bonePositionRandomness: 0.3
    boneRotationRandomness: 0.3
  emotionData: []
  gestureData: []
  version: 1.52
  length: 4.649796
  transcript: 
  phonemePoseCurves: []
  emotionPoseCurves: []
  targetComponentID: 0
  isPreprocessed: 0
  indexBlendables: 
  animCurves: []
  bones: []
  boneCurves: []
  boneNeutralPositions: []
  boneNeutralScales: []
  boneNeutralRotations: []
