%YAML 1.1
%TAG !u! tag:unity3d.com,2011:
--- !u!114 &11400000
MonoBehaviour:
  m_ObjectHideFlags: 0
  m_PrefabParentObject: {fileID: 0}
  m_PrefabInternal: {fileID: 0}
  m_GameObject: {fileID: 0}
  m_Enabled: 1
  m_EditorHideFlags: 0
  m_Script: {fileID: 11500000, guid: 9f44607bd270d4f4eaa8869ed9b5b85c, type: 3}
  m_Name: comp_3_act1_e44
  m_EditorClassIdentifier: 
  clip: {fileID: 8300000, guid: c4a61fb36ee6ed842ba083d6f8bf0956, type: 3}
  phonemeData:
  - phoneme: 0
    phonemeNumber: 9
    time: 0.0047219307
    intensity: 1
    sustain: 0
    useRandomness: 0
    intensityRandomness: 0.1
    blendableRandomness: 0.3
    bonePositionRandomness: 0.3
    boneRotationRandomness: 0.3
  - phoneme: 0
    phonemeNumber: 1
    time: 0.035872467
    intensity: 1
    sustain: 0
    useRandomness: 0
    intensityRandomness: 0.1
    blendableRandomness: 0.3
    bonePositionRandomness: 0.3
    boneRotationRandomness: 0.3
  - phoneme: 0
    phonemeNumber: 9
    time: 0.1496437
    intensity: 1
    sustain: 0
    useRandomness: 0
    intensityRandomness: 0.1
    blendableRandomness: 0.3
    bonePositionRandomness: 0.3
    boneRotationRandomness: 0.3
  - phoneme: 0
    phonemeNumber: 7
    time: 0.23819517
    intensity: 1
    sustain: 0
    useRandomness: 0
    intensityRandomness: 0.1
    blendableRandomness: 0.3
    bonePositionRandomness: 0.3
    boneRotationRandomness: 0.3
  - phoneme: 0
    phonemeNumber: 0
    time: 0.2465897
    intensity: 1
    sustain: 0
    useRandomness: 0
    intensityRandomness: 0.1
    blendableRandomness: 0.3
    bonePositionRandomness: 0.3
    boneRotationRandomness: 0.3
  - phoneme: 0
    phonemeNumber: 4
    time: 0.2854145
    intensity: 1
    sustain: 0
    useRandomness: 0
    intensityRandomness: 0.1
    blendableRandomness: 0.3
    bonePositionRandomness: 0.3
    boneRotationRandomness: 0.3
  - phoneme: 0
    phonemeNumber: 2
    time: 0.31112278
    intensity: 1
    sustain: 0
    useRandomness: 0
    intensityRandomness: 0.1
    blendableRandomness: 0.3
    bonePositionRandomness: 0.3
    boneRotationRandomness: 0.3
  - phoneme: 0
    phonemeNumber: 6
    time: 0.3417138
    intensity: 1
    sustain: 0
    useRandomness: 0
    intensityRandomness: 0.1
    blendableRandomness: 0.3
    bonePositionRandomness: 0.3
    boneRotationRandomness: 0.3
  - phoneme: 0
    phonemeNumber: 2
    time: 0.36201468
    intensity: 1
    sustain: 0
    useRandomness: 0
    intensityRandomness: 0.1
    blendableRandomness: 0.3
    bonePositionRandomness: 0.3
    boneRotationRandomness: 0.3
  - phoneme: 0
    phonemeNumber: 7
    time: 0.45583853
    intensity: 1
    sustain: 0
    useRandomness: 0
    intensityRandomness: 0.1
    blendableRandomness: 0.3
    bonePositionRandomness: 0.3
    boneRotationRandomness: 0.3
  - phoneme: 0
    phonemeNumber: 1
    time: 0.49412572
    intensity: 1
    sustain: 0
    useRandomness: 0
    intensityRandomness: 0.1
    blendableRandomness: 0.3
    bonePositionRandomness: 0.3
    boneRotationRandomness: 0.3
  - phoneme: 0
    phonemeNumber: 9
    time: 0.5493925
    intensity: 1
    sustain: 0
    useRandomness: 0
    intensityRandomness: 0.1
    blendableRandomness: 0.3
    bonePositionRandomness: 0.3
    boneRotationRandomness: 0.3
  - phoneme: 0
    phonemeNumber: 9
    time: 0.5891947
    intensity: 1
    sustain: 0
    useRandomness: 0
    intensityRandomness: 0.1
    blendableRandomness: 0.3
    bonePositionRandomness: 0.3
    boneRotationRandomness: 0.3
  - phoneme: 0
    phonemeNumber: 4
    time: 0.6062815
    intensity: 1
    sustain: 0
    useRandomness: 0
    intensityRandomness: 0.1
    blendableRandomness: 0.3
    bonePositionRandomness: 0.3
    boneRotationRandomness: 0.3
  - phoneme: 0
    phonemeNumber: 0
    time: 0.6192903
    intensity: 1
    sustain: 0
    useRandomness: 0
    intensityRandomness: 0.1
    blendableRandomness: 0.3
    bonePositionRandomness: 0.3
    boneRotationRandomness: 0.3
  - phoneme: 0
    phonemeNumber: 5
    time: 0.63047314
    intensity: 1
    sustain: 0
    useRandomness: 0
    intensityRandomness: 0.1
    blendableRandomness: 0.3
    bonePositionRandomness: 0.3
    boneRotationRandomness: 0.3
  - phoneme: 0
    phonemeNumber: 3
    time: 0.6482879
    intensity: 1
    sustain: 0
    useRandomness: 0
    intensityRandomness: 0.1
    blendableRandomness: 0.3
    bonePositionRandomness: 0.3
    boneRotationRandomness: 0.3
  - phoneme: 0
    phonemeNumber: 7
    time: 0.6981691
    intensity: 1
    sustain: 0
    useRandomness: 0
    intensityRandomness: 0.1
    blendableRandomness: 0.3
    bonePositionRandomness: 0.3
    boneRotationRandomness: 0.3
  - phoneme: 0
    phonemeNumber: 4
    time: 0.72667277
    intensity: 1
    sustain: 0
    useRandomness: 0
    intensityRandomness: 0.1
    blendableRandomness: 0.3
    bonePositionRandomness: 0.3
    boneRotationRandomness: 0.3
  - phoneme: 0
    phonemeNumber: 0
    time: 0.73736155
    intensity: 1
    sustain: 0
    useRandomness: 0
    intensityRandomness: 0.1
    blendableRandomness: 0.3
    bonePositionRandomness: 0.3
    boneRotationRandomness: 0.3
  - phoneme: 0
    phonemeNumber: 4
    time: 0.7551763
    intensity: 1
    sustain: 0
    useRandomness: 0
    intensityRandomness: 0.1
    blendableRandomness: 0.3
    bonePositionRandomness: 0.3
    boneRotationRandomness: 0.3
  - phoneme: 0
    phonemeNumber: 1
    time: 0.7663026
    intensity: 1
    sustain: 0
    useRandomness: 0
    intensityRandomness: 0.1
    blendableRandomness: 0.3
    bonePositionRandomness: 0.3
    boneRotationRandomness: 0.3
  - phoneme: 0
    phonemeNumber: 8
    time: 0.8056519
    intensity: 1
    sustain: 0
    useRandomness: 0
    intensityRandomness: 0.1
    blendableRandomness: 0.3
    bonePositionRandomness: 0.3
    boneRotationRandomness: 0.3
  - phoneme: 0
    phonemeNumber: 4
    time: 0.835076
    intensity: 1
    sustain: 0
    useRandomness: 0
    intensityRandomness: 0.1
    blendableRandomness: 0.3
    bonePositionRandomness: 0.3
    boneRotationRandomness: 0.3
  - phoneme: 0
    phonemeNumber: 1
    time: 0.8418534
    intensity: 1
    sustain: 0
    useRandomness: 0
    intensityRandomness: 0.1
    blendableRandomness: 0.3
    bonePositionRandomness: 0.3
    boneRotationRandomness: 0.3
  - phoneme: 0
    phonemeNumber: 7
    time: 0.8681798
    intensity: 1
    sustain: 0
    useRandomness: 0
    intensityRandomness: 0.1
    blendableRandomness: 0.3
    bonePositionRandomness: 0.3
    boneRotationRandomness: 0.3
  - phoneme: 0
    phonemeNumber: 0
    time: 0.89255863
    intensity: 1
    sustain: 0
    useRandomness: 0
    intensityRandomness: 0.1
    blendableRandomness: 0.3
    bonePositionRandomness: 0.3
    boneRotationRandomness: 0.3
  - phoneme: 0
    phonemeNumber: 1
    time: 0.91242176
    intensity: 1
    sustain: 0
    useRandomness: 0
    intensityRandomness: 0.1
    blendableRandomness: 0.3
    bonePositionRandomness: 0.3
    boneRotationRandomness: 0.3
  - phoneme: 0
    phonemeNumber: 9
    time: 0.9584583
    intensity: 1
    sustain: 0
    useRandomness: 0
    intensityRandomness: 0.1
    blendableRandomness: 0.3
    bonePositionRandomness: 0.3
    boneRotationRandomness: 0.3
  emotionData: []
  gestureData: []
  version: 1.43
  length: 4.151406
  transcript: 
